<?xml version="1.0" encoding="UTF-8" standalone="no"?>
<!DOCTYPE svg PUBLIC "-//W3C//DTD SVG 20010904//EN"
              "http://www.w3.org/TR/2001/REC-SVG-20010904/DTD/svg10.dtd">

<svg xmlns="http://www.w3.org/2000/svg"
     width="14.2222in" height="14.2222in"
     viewBox="0 0 1024 1024">
  <path id="Louigi Black Lines"
        fill="none" stroke="black" stroke-width="1"
        d="M 175.33,546.67
           C 174.00,544.33 156.40,523.45 185.67,503.00
             220.76,496.78 227.67,511.67 242.00,510.00
             249.67,532.67 209.00,572.67 175.67,547.00
             184.06,552.38 216.88,551.38 220.94,548.88M 241.91,510.09
           C 245.12,495.72 255.82,472.09 259.36,469.45
             262.88,472.62 250.55,501.27 249.18,504.09
             252.54,523.92 302.36,499.82 308.55,494.55
             349.50,497.75 326.37,539.23 317.64,538.55
             311.04,542.12 281.45,534.18 277.82,529.64
             272.91,534.18 249.45,527.45 252.00,518.73
             249.27,517.27 247.78,508.99 249.09,504.36M 308.73,494.73
           C 312.13,492.74 302.88,488.50 302.73,484.91
             302.73,484.91 304.25,455.50 304.25,455.50
             328.12,455.50 322.88,452.12 330.50,445.38
             354.12,443.65 345.62,415.50 341.25,413.12
             341.25,413.12 340.50,386.75 340.50,386.75
             341.71,369.97 345.00,364.62 337.62,335.00
             332.75,327.38 303.69,294.81 273.25,290.12
             282.99,280.05 286.53,261.23 286.50,261.25
             304.05,258.77 299.63,244.12 298.50,239.50
             302.12,233.00 304.00,215.09 286.50,208.12
             285.91,206.44 286.51,191.53 283.12,189.88
             283.12,189.88 283.25,188.12 283.25,188.12
             294.96,185.97 293.00,174.25 288.88,171.12M 288.83,171.17
           C 288.83,171.17 283.50,170.50 283.50,170.50
             284.07,170.70 283.18,165.17 280.50,164.25M 280.61,164.30
           C 280.61,164.30 278.75,165.00 278.75,165.00
             278.75,165.00 276.62,165.38 276.62,165.38
             277.20,164.32 269.88,161.80 268.00,165.25
             267.89,166.29 262.75,169.12 260.38,169.00
             260.38,169.00 251.75,169.50 251.75,169.50
             249.87,167.46 242.73,167.18 235.00,169.82
             235.00,169.82 219.36,174.45 219.36,174.45
             206.81,177.72 195.73,195.91 194.55,198.45
             194.55,198.45 191.91,198.30 191.91,198.30
             190.46,197.53 188.58,193.21 188.10,191.43
             183.94,200.28 187.27,206.09 190.45,207.45
             190.45,207.45 190.73,210.18 190.73,210.18
             185.37,214.42 187.55,223.00 188.73,224.82
             188.73,224.82 188.55,231.55 188.55,231.55
             183.69,237.31 184.73,249.91 187.73,252.45
             194.79,253.66 200.73,263.55 200.18,264.09
             202.24,252.57 208.81,244.12 215.81,246.22
             224.93,249.71 218.53,260.72 218.75,264.41
             218.11,266.53 217.85,290.80 218.03,290.73
             218.03,290.73 223.69,288.81 223.69,288.81
             223.69,288.81 221.50,293.31 221.50,293.31
             222.60,299.29 236.58,291.56 236.50,291.12
             236.50,291.12 238.91,296.45 238.91,296.45
             241.09,300.86 223.19,307.65 219.18,308.64
             210.25,345.88 164.50,340.00 168.88,319.38
             168.88,319.38 157.88,300.88 157.88,300.88
             150.04,287.56 163.55,265.45 170.27,260.09
             170.27,260.09 168.00,256.36 168.00,256.36
             168.00,256.36 163.64,258.82 163.64,258.82
             160.08,287.61 135.00,295.18 122.00,293.00
             105.66,290.74 61.00,308.73 56.73,314.91
             53.76,310.72 64.09,303.64 65.09,299.45
             65.41,298.47 64.69,297.60 63.64,296.91
             52.75,290.25 35.94,260.25 34.73,256.00
             26.30,238.52 38.06,228.94 44.31,228.38
             54.64,200.89 84.55,198.36 88.91,198.00
             106.50,196.87 124.52,199.39 126.18,200.27
             127.81,197.37 133.69,194.62 136.81,194.38
             136.81,194.38 152.19,194.44 152.19,194.44
             175.43,199.93 181.42,221.10 181.25,221.06
             181.25,221.06 181.62,239.44 181.62,239.44
             180.30,246.89 167.79,257.61 168.00,256.44M 181.12,335.00
           C 180.95,338.70 195.88,355.88 198.55,356.45
             211.77,364.23 223.38,354.25 226.88,351.06
             230.88,347.85 238.68,354.62 238.44,354.88
             233.46,359.05 235.56,377.56 235.38,379.44
             230.79,380.31 232.98,387.25 233.88,386.69
             233.88,386.69 224.75,419.19 224.75,419.19
             217.57,423.16 217.75,438.74 218.25,439.44
             217.00,442.50 203.31,489.97 185.69,502.97M 259.36,469.55
           C 259.36,469.55 275.73,443.73 275.73,443.73
             277.96,438.52 287.36,435.82 292.09,436.36M 235.38,379.44
           C 237.75,379.74 241.03,387.71 233.88,386.81M 238.00,381.88
           C 243.54,382.80 255.25,373.12 255.44,371.00M 258.19,368.12
           C 263.21,369.26 260.44,373.76 258.19,373.25
             253.94,372.82 255.72,367.94 258.12,368.19M 238.31,383.81
           C 244.63,383.80 254.31,377.69 256.94,373.12M 235.17,372.16
           C 261.76,362.47 281.31,358.50 321.12,355.69M 235.21,374.23
           C 271.24,359.97 304.87,359.75 321.78,358.41M 235.14,368.17
           C 263.68,357.65 283.81,354.75 320.06,350.31M 235.86,365.97
           C 272.37,352.17 293.91,350.78 319.61,348.00M 304.25,455.50
           C 304.04,449.96 301.88,441.41 307.00,434.00
             315.59,418.49 317.50,398.12 316.25,391.88
             321.65,373.91 321.44,371.44 322.25,359.69
             322.01,359.69 317.34,340.91 320.82,340.82
             321.62,337.12 324.77,319.34 305.00,317.62
             301.94,305.50 274.50,295.75 271.38,292.75M 238.94,296.50
           C 264.34,302.78 271.35,292.70 273.35,290.13M 267.70,295.48
           C 267.65,295.48 289.83,312.09 289.83,312.09
             290.96,313.65 292.52,314.35 287.65,315.43
             287.65,315.43 274.26,317.15 274.26,317.15
             270.36,313.96 252.84,300.42 245.16,297.84M 280.83,329.48
           C 281.74,333.41 269.74,348.29 260.13,331.13
             263.16,312.95 282.10,321.99 280.87,329.35M 234.22,302.57
           C 244.74,307.73 255.30,324.69 254.70,324.39
             255.75,325.68 255.75,328.31 253.35,331.17
             254.71,332.15 239.64,355.48 238.62,354.75M 216.45,319.00
           C 219.56,320.49 221.18,333.91 218.64,337.82M 228.45,350.00
           C 228.45,350.00 234.18,337.09 234.18,337.09
             234.18,337.09 231.55,350.00 231.55,350.00M 221.64,353.73
           C 225.77,350.41 225.82,339.64 225.36,337.64M 229.91,307.55
           C 236.60,312.06 239.45,325.55 237.73,329.09M 314.44,445.38
           C 314.44,445.38 330.19,445.31 330.19,445.31M 306.00,448.73
           C 306.00,448.73 322.36,450.18 322.36,450.18M 342.36,415.82
           C 342.36,415.82 337.09,429.27 337.09,429.27M 343.64,428.18M 316.69,395.06
           C 318.73,393.87 336.73,395.27 340.62,397.19M 218.09,290.82
           C 217.97,290.60 215.21,301.72 215.36,302.00
             215.36,302.00 219.09,308.82 219.09,308.82M 168.91,319.45
           C 188.09,343.73 218.95,306.55 215.36,302.27M 174.27,351.82M 181.09,325.82
           C 181.09,325.82 180.91,321.36 180.91,321.36
             180.91,321.36 167.73,298.36 167.73,298.36
             163.95,290.87 168.09,284.36 172.55,285.18M 156.36,285.27
           C 161.85,271.50 175.09,269.45 178.55,271.91
             185.64,275.60 187.07,281.05 186.64,280.82
             187.65,294.68 173.47,293.28 172.91,285.64M 186.09,285.82
           C 193.40,287.62 195.79,279.60 194.82,279.36
             196.20,278.44 192.26,249.70 163.91,268.64M 194.81,279.38
           C 203.12,278.21 200.06,266.06 200.25,264.25M 212.63,308.01
           C 209.39,302.39 199.37,285.55 202.18,279.37M 219.55,260.82
           C 219.55,260.82 236.45,291.00 236.45,291.00M 255.73,326.55
           C 255.73,326.55 262.36,343.18 262.36,343.18
             262.36,343.18 276.27,344.45 276.27,344.45
             276.27,344.45 287.27,333.09 287.27,333.09
             287.27,333.09 274.55,317.18 274.55,317.18M 291.55,313.91
           C 298.21,314.78 309.81,335.74 307.64,335.45
             307.64,335.45 319.09,341.36 319.09,341.36M 252.00,518.91
           C 252.00,518.91 277.82,529.64 277.82,529.64M 277.82,529.64
           C 292.10,539.33 320.91,538.45 328.27,527.82M 221.09,252.91
           C 229.81,243.93 223.64,234.36 221.64,231.09
             221.64,231.09 214.09,216.55 214.09,216.55
             207.88,209.45 223.36,195.82 231.27,195.09
             242.21,193.61 245.45,189.45 250.73,187.64
             255.08,194.63 261.73,190.55 267.00,188.00
             275.63,185.90 280.00,187.55 282.91,189.64M 231.45,195.18
           C 231.45,195.18 231.36,202.73 231.36,202.73
             236.15,192.89 249.82,190.00 253.27,195.55
             253.27,195.55 252.09,189.65 252.09,189.65M 266.91,188.00
           C 266.91,188.00 266.36,193.64 266.36,193.64
             277.47,184.35 282.55,196.91 283.82,199.27
             285.09,198.91 283.37,190.02 282.91,189.82M 286.64,261.36
           C 286.67,262.00 275.00,263.36 275.00,258.36
             275.00,258.36 272.09,258.18 272.09,258.18
             268.64,262.64 258.55,265.41 249.00,263.45
             245.27,263.36 230.01,256.82 235.09,236.09
             240.64,239.73 257.47,241.95 257.62,241.48
             253.45,233.82 249.98,208.66 286.53,208.48
             286.08,209.12 284.04,201.70 283.96,199.35M 257.82,241.45
           C 273.56,261.39 295.45,244.09 298.45,239.82M 255.36,228.91
           C 249.36,229.36 241.88,230.35 237.91,216.73
             232.99,200.54 250.84,189.45 257.09,210.00
             257.77,211.02 258.82,216.64 257.82,219.45M 267.27,211.18
           C 266.97,187.22 279.77,196.99 280.27,208.64M 237.64,207.55
           C 255.64,198.18 253.73,225.73 248.64,228.82M 240.55,218.00
           C 238.77,209.61 246.59,205.66 249.09,217.45
             250.45,222.59 243.85,230.38 240.64,218.18M 268.09,202.55
           C 274.45,203.27 275.64,207.18 276.36,209.27M 181.09,242.00
           C 181.09,242.00 187.18,253.27 187.18,253.27
             181.73,251.73 172.58,253.79 170.36,260.27M 188.64,231.55
           C 209.19,223.00 207.38,238.31 215.91,246.00M 279.19,268.25
           C 279.19,268.25 260.00,270.81 260.00,270.81
             261.19,275.78 280.65,274.00 279.25,268.19M 280.38,263.56
           C 280.38,263.56 258.56,266.00 258.56,266.00
             261.49,267.81 277.38,266.12 280.19,263.75M 44.38,228.31
           C 64.38,230.19 73.71,244.20 73.44,244.19
             73.46,203.72 115.31,213.44 119.81,234.81
             136.21,265.79 108.88,291.25 88.38,277.25
             88.38,288.50 63.90,306.24 34.88,256.00M 47.25,268.88
           C 25.78,239.38 56.39,231.72 73.88,255.75
             89.47,276.03 74.61,304.46 47.25,268.88M 117.75,246.25
           C 128.00,274.68 94.81,292.15 82.50,258.00
             74.22,217.42 112.86,222.77 117.62,246.12M 132.25,266.62
           C 143.00,260.11 157.62,252.50 163.62,259.25M 158.00,258.75
           C 156.12,279.00 130.88,288.50 118.38,288.62
             109.62,288.75 72.07,297.19 60.25,307.00M 57.00,314.88
           C 67.94,317.68 64.06,309.97 70.12,308.75
             80.25,300.64 122.16,293.06 122.00,293.19M 66.45,248.73
           C 55.96,247.51 57.00,261.64 63.09,267.73
             71.87,279.40 81.08,267.30 78.31,263.62M 65.69,264.25
           C 59.86,257.19 64.49,248.12 72.75,258.12
             77.25,263.17 72.15,271.68 65.69,264.44M 115.44,240.31
           C 106.31,228.81 92.44,237.75 99.06,252.00
             110.54,272.05 120.94,254.96 118.19,247.44M 103.19,250.25
           C 99.31,241.72 108.51,236.02 113.19,246.31
             117.15,257.08 106.19,258.48 103.19,250.31M 210.73,246.18
           C 211.10,244.75 195.82,221.18 190.09,243.00M 201.91,256.00
           C 195.49,253.59 197.94,238.32 207.00,241.73M 304.81,359.69
           C 306.38,363.31 303.69,394.81 300.62,399.56M 306.81,359.50
           C 309.55,380.20 302.53,400.53 300.75,399.44M 315.25,359.00
           C 318.91,360.06 311.84,405.08 305.75,403.31
             318.02,401.08 319.31,358.62 318.25,358.81M 305.09,317.64
           C 301.16,328.94 320.41,339.17 320.82,338.00" />
</svg>
